2020-05-31,7951,9120,1029
2020-05-30,5896,9649,7811
2020-05-29,4258,1386,2506
2020-05-28,8165,8059,5031
2020-05-27,8712,1106,4852
2020-05-26,7624,9217,3286
2020-05-25,8094,6362,8273
2020-05-24,4681,3690,4876
2020-05-23,4383,6371,8754
2020-05-22,7120,5416,5007
2020-05-21,2563,2308,6508
2020-05-20,5989,5841,8415
2020-05-19,8601,4274,9326
2020-05-18,4607,5930,1732
2020-05-17,8095,9122,4378
2020-05-16,8742,3258,5947
2020-05-15,1267,9240,4956
2020-05-14,2610,4153,3361
2020-05-13,7084,5783,1025
2020-05-12,6472,4503,3975
2020-05-11,1651,2056,9611
2020-05-10,6123,7380,7815
2020-05-09,0517,8093,2641
2020-05-08,7084,9026,6914
2020-05-07,9361,4823,8978
2020-05-06,5032,5325,4204
2020-05-05,3782,2138,4326
2020-05-04,5687,8054,1093
2020-05-03,5970,2889,9716
2020-05-02,7005,0541,9642
2020-05-01,6583,2227,8267
2020-04-30,7524,8604,5735
2020-04-29,2970,3478,5463
2020-04-28,8699,6798,1279
2020-04-27,1882,3970,9734
2020-04-26,8541,2198,4366
2020-04-25,7164,1962,7843
2020-04-24,9556,4722,4285
2020-04-23,3819,2667,7850
2020-04-22,8927,4383,9064
2020-04-21,5623,3785,1450
2020-04-20,4806,7912,2310
2020-04-19,2625,5070,5137
2020-04-18,7005,6696,5870
2020-04-17,3195,5739,4958
2020-04-16,3518,6036,1007
2020-04-15,4781,4080,4947
2020-04-14,8505,8234,3052
2020-04-13,4704,4045,8309
2020-04-12,4543,9384,2624
2020-04-11,8306,5016,7821
2020-04-10,4783,9810,5693
2020-04-09,8672,5612,7070
2020-04-08,5867,7668,8432
2020-04-07,9353,4187,2760
2020-04-06,6725,7100,5839
2020-04-05,8274,2474,8562
2020-04-04,1027,7356,9948
2020-04-03,4028,4565,1734
2020-04-02,8253,6752,3104
2020-04-01,5872,9630,7043
2020-03-31,8951,6337,4920
2020-03-30,6850,1885,4081
2020-03-29,1695,5424,2106
2020-03-28,9633,3517,2196
2020-03-27,6145,6783,1313
2020-03-26,2835,7845,8643
2020-03-25,8264,3475,2576
2020-03-24,7064,4202,7036
2020-03-23,4597,3790,6437
2020-03-22,3274,9418,7406
2020-03-21,2495,8317,4385
2020-03-20,7356,2825,6073
2020-03-19,2931,8320,4368
2020-03-18,7259,7623,5420
2020-03-17,8913,5047,3279
2020-03-16,6483,9246,5308
2020-03-15,9405,6095,2646
2020-03-14,5444,8370,8495
2020-03-13,7387,5575,3799
2020-03-12,8604,6211,9815
2020-03-11,4703,3548,6901
2020-03-10,6819,9292,5768
2020-03-09,3590,2574,3515
2020-03-08,2736,2403,1123
2020-03-07,4639,4956,7826
2020-03-06,6482,5401,4269
2020-03-05,7392,3730,8346
2020-03-04,8530,1492,2140
2020-03-03,2885,3577,0362
2020-03-02,5143,1359,6019
2020-03-01,8356,6879,3662
2020-02-29,4791,7639,2057
2020-02-28,3059,9073,4601
2020-02-27,8736,1403,8129
2020-02-26,6720,3296,1984
2020-02-25,5663,3895,4021
2020-02-24,6018,9217,9051
2020-02-23,6528,2899,7815
2020-02-22,5740,5830,9125
2020-02-21,7197,4539,6911
2020-02-20,1968,5191,2263
2020-02-19,6701,3617,2535
2020-02-18,5887,9048,7342
2020-02-17,3640,9014,8770
2020-02-16,6804,7452,3421
2020-02-15,1039,9981,3193
2020-02-14,2196,1845,3163
2020-02-13,9253,4348,4287
2020-02-12,5412,6909,2785
2020-02-11,7130,1747,3056
2020-02-10,1837,3041,3074
2020-02-09,9410,2109,4239
2020-02-08,3930,5618,6976
2020-02-07,5575,8661,5817
2020-02-06,4340,6800,9377
2020-02-05,4024,7860,6381
2020-02-04,1894,7209,3408
2020-02-03,2890,7172,0812
2020-02-02,6451,3480,3018
2020-02-01,4305,1406,3009
2020-01-31,5641,8753,5229
2020-01-30,2916,0814,2503
2020-01-29,6912,7750,4980
2020-01-28,1637,3871,2365
2020-01-27,2948,3440,7813
2020-01-26,5768,8104,3747
2020-01-25,4306,9287,6486
2020-01-24,4029,3758,8499
2020-01-23,8464,1237,4210
2020-01-22,6272,5830,7595
2020-01-21,5469,1926,9321
2020-01-20,1262,4906,1609
2020-01-19,7465,5780,3121
2020-01-18,9877,3297,5252
2020-01-17,2318,8649,1384
2020-01-16,5930,2511,8023
2020-01-15,9167,7442,4408
2020-01-14,6495,9359,6126
2020-01-13,1360,3846,2103
2020-01-12,2935,3749,5109
2020-01-11,1303,6843,2666
2020-01-10,3647,7290,7073
2020-01-09,4932,1864,5911
2020-01-08,2451,8584,5382
2020-01-07,4508,4086,5745
2020-01-06,1671,3515,4299
2020-01-05,9444,5035,1009
2020-01-04,1475,8910,5268
2020-01-03,4191,3203,3985
2020-01-02,1235,2280,2017
2020-01-01,0536,5699,4759
