<!-- Generator: Adobe Illustrator 21.0.0, SVG Export Plug-In  -->
<svg version="1.1"
	 xmlns="http://www.w3.org/2000/svg" xmlns:xlink="http://www.w3.org/1999/xlink" xmlns:a="http://ns.adobe.com/AdobeSVGViewerExtensions/3.0/"
	 x="0px" y="0px" width="30px" height="30px" viewBox="0 0 30 30" style="enable-background:new 0 0 30 30;" xml:space="preserve">
<style type="text/css">
	.st0{fill:#F3CA24;}
</style>
	<path class="st0" d="M20.7,21.2c-0.7,0.5-2,1.2-3.5,1.4c-2.3,0.3-4.5-0.3-6-1.8c-0.7-0.7-1.3-1.6-1.7-2.8L8,18.1l-0.2-1.6l1.3-0.2
		c0-0.1,0-0.3-0.1-0.4c0-0.2,0-0.5-0.1-0.7l-1.3,0.2l-0.2-1.6L9,13.5c0.1-1.3,0.5-2.4,1.1-3.4c1.1-1.7,2.8-2.8,5-3.1
		c1.4-0.2,2.7-0.1,3.6,0.2L18.4,10c-0.6-0.2-1.6-0.3-2.6-0.2c-1.1,0.2-2.1,0.7-2.7,1.6c-0.3,0.4-0.4,1-0.5,1.6l5.7-0.8l0.2,1.6
		l-6.1,0.9c0,0.2,0,0.5,0.1,0.7c0,0.1,0,0.2,0.1,0.4l6.1-0.9l0.2,1.6l-5.8,0.8c0.3,0.7,0.6,1.2,1,1.5c0.9,0.7,2,0.9,3.1,0.8
		c1.1-0.2,2.1-0.7,2.5-1L20.7,21.2z"/>
<path class="st0" d="M15,0C6.7,0,0,6.7,0,15c0,8.3,6.7,15,15,15s15-6.7,15-15C30,6.7,23.3,0,15,0z M15.1,27.1
	c-6.8,0-12.3-5.5-12.3-12.3S8.4,2.6,15.1,2.6s12.3,5.5,12.3,12.3S21.9,27.1,15.1,27.1z"/>
</svg>
