<?xml version="1.0" encoding="utf-8"?>
<!-- Generator: Adobe Illustrator 21.0.0, SVG Export Plug-In . SVG Version: 6.00 Build 0)  -->
<svg version="1.1" id="Layer_1" xmlns="http://www.w3.org/2000/svg" xmlns:xlink="http://www.w3.org/1999/xlink" x="0px" y="0px"
	 viewBox="0 0 150 150" style="enable-background:new 0 0 150 150;" xml:space="preserve">
<style type="text/css">
	.st0{fill:#1B75BC;stroke:#2B3990;stroke-width:5;stroke-miterlimit:10;}
	.st1{fill:#FFFFFF;}
	.st2{fill:#00AEEF;}
	.st3{fill:#1B75BC;}
	.st4{display:none;}
	.st5{display:inline;fill:#FFFFFF;}
</style>
<circle class="st0" cx="75" cy="75" r="72.2"/>
<g>
	<path class="st1" d="M109.4,119.7h-71c-6,0-10.8-4.9-10.8-10.8v-7.4c0-6,4.9-10.8,10.8-10.8h71c6,0,10.8,4.9,10.8,10.8v7.4
		C120.2,114.9,115.3,119.7,109.4,119.7z"/>
	<path class="st2" d="M108,115.9H87.1c-4.4,0-8-3.6-8-8v-5.5c0-4.4,3.6-8,8-8H108c4.4,0,8,3.6,8,8v5.5
		C115.9,112.3,112.3,115.9,108,115.9z"/>
	<path class="st1" d="M109.6,87.5h-71c-6,0-10.8-4.9-10.8-10.8v-7.4c0-6,4.9-10.8,10.8-10.8h71c6,0,10.8,4.9,10.8,10.8v7.4
		C120.4,82.7,115.5,87.5,109.6,87.5z"/>
	<path class="st2" d="M61.6,83.7H40.7c-4.4,0-8-3.6-8-8v-5.5c0-4.4,3.6-8,8-8h20.9c4.4,0,8,3.6,8,8v5.5C69.6,80.1,66,83.7,61.6,83.7
		z"/>
	<g>
		<path class="st3" d="M89.3,73.5c0,1.9-0.5,3.3-1.4,4.3s-2.3,1.5-4,1.5c-1.7,0-3.1-0.5-4-1.5s-1.4-2.4-1.4-4.3
			c0-1.9,0.5-3.3,1.4-4.2c0.9-1,2.3-1.5,4-1.5c1.8,0,3.1,0.5,4,1.5S89.3,71.7,89.3,73.5z M81.6,73.5c0,2.2,0.7,3.2,2.2,3.2
			c0.8,0,1.3-0.3,1.7-0.8s0.6-1.3,0.6-2.4c0-1.1-0.2-1.9-0.6-2.5c-0.4-0.5-0.9-0.8-1.7-0.8C82.4,70.3,81.6,71.4,81.6,73.5z"/>
		<path class="st3" d="M100.8,68v6.7c0,1.5-0.4,2.6-1.2,3.4c-0.8,0.8-2,1.2-3.6,1.2c-1.5,0-2.7-0.4-3.5-1.2
			c-0.8-0.8-1.2-1.9-1.2-3.4V68h3v6.5c0,0.8,0.1,1.4,0.4,1.7c0.3,0.4,0.7,0.5,1.3,0.5c0.6,0,1.1-0.2,1.3-0.5
			c0.3-0.4,0.4-0.9,0.4-1.7V68H100.8z"/>
		<path class="st3" d="M103.1,79.1V68h3v11.1H103.1z"/>
	</g>
	<g>
		<path class="st3" d="M47,109.5h-3.8l-3.9-7.5h-0.1c0.1,1.2,0.1,2.1,0.1,2.7v4.8h-2.6V98.8h3.8l3.9,7.4h0c-0.1-1.1-0.1-1.9-0.1-2.6
			v-4.8H47V109.5z"/>
		<path class="st3" d="M59.3,104.1c0,1.8-0.4,3.2-1.3,4.1c-0.9,0.9-2.2,1.4-3.9,1.4c-1.7,0-3-0.5-3.9-1.4c-0.9-0.9-1.3-2.3-1.3-4.1
			c0-1.8,0.4-3.1,1.3-4.1c0.9-0.9,2.2-1.4,3.9-1.4c1.7,0,3,0.5,3.9,1.4C58.9,101,59.3,102.3,59.3,104.1z M52,104.1
			c0,2.1,0.7,3.1,2.2,3.1c0.7,0,1.3-0.3,1.6-0.8s0.5-1.3,0.5-2.4c0-1.1-0.2-1.9-0.5-2.4c-0.4-0.5-0.9-0.8-1.6-0.8
			C52.7,101,52,102.1,52,104.1z"/>
		<path class="st3" d="M71.5,109.5h-3.8l-3.9-7.5h-0.1c0.1,1.2,0.1,2.1,0.1,2.7v4.8h-2.6V98.8h3.8l3.9,7.4h0
			c-0.1-1.1-0.1-1.9-0.1-2.6v-4.8h2.6V109.5z"/>
	</g>
</g>
<g class="st4">
	<path class="st5" d="M43,41.5v6.1h-5.3V30.7h7.2c1.8,0,3.2,0.2,4.1,0.6s1.7,1,2.2,1.9C51.7,34,52,35,52,36.1c0,1.6-0.6,2.9-1.7,3.9
		s-2.6,1.5-4.5,1.5C45.8,41.5,43,41.5,43,41.5z M42.9,37.8h1.7c1.5,0,2.3-0.6,2.3-1.7c0-1.1-0.7-1.6-2.1-1.6h-1.9V37.8z"/>
	<path class="st5" d="M65.8,43.4v4.1H54V30.7h5.2v12.7H65.8z"/>
	<path class="st5" d="M81.2,30.7v11.2c0,2.1-0.6,3.6-1.9,4.6c-1.3,0.9-2.9,1.4-4.9,1.4c-2.1,0-3.8-0.4-5.1-1.3
		c-1.3-0.9-1.9-2.3-1.9-4.3V30.7h5.3v10.8c0,0.8,0.2,1.4,0.5,1.8s0.9,0.6,1.6,0.6c0.6,0,1.1-0.1,1.5-0.4c0.4-0.3,0.6-0.6,0.7-0.9
		c0.1-0.3,0.1-1,0.1-2v-9.9C77.1,30.7,81.2,30.7,81.2,30.7z"/>
	<path class="st5" d="M82.2,42.7l4.8-0.9c0.4,1.4,1.4,2,3.1,2c1.3,0,2-0.3,2-1c0-0.4-0.2-0.6-0.5-0.8s-0.8-0.4-1.6-0.5
		c-3-0.6-4.9-1.3-5.7-2.2c-0.8-0.9-1.3-2-1.3-3.2c0-1.6,0.6-2.9,1.8-4c1.2-1.1,2.9-1.6,5.2-1.6c3.4,0,5.7,1.4,6.8,4.1l-4.3,1.3
		c-0.4-1.1-1.3-1.7-2.7-1.7c-1.1,0-1.7,0.4-1.7,1c0,0.3,0.1,0.6,0.4,0.7c0.3,0.2,0.8,0.3,1.5,0.5c2,0.4,3.5,0.8,4.3,1.1
		s1.6,0.9,2.1,1.7c0.6,0.8,0.9,1.7,0.9,2.8c0,1.7-0.7,3.1-2.1,4.1c-1.4,1.1-3.2,1.6-5.4,1.6C85.7,47.8,83.2,46.1,82.2,42.7z"/>
	<path class="st5" d="M102.6,36.8l-4.5-0.5c0.7-3.9,2.9-5.8,6.7-5.8c1.9,0,3.4,0.5,4.5,1.5s1.7,2.3,1.7,3.7c0,0.7-0.1,1.3-0.3,1.8
		c-0.2,0.5-0.5,1-0.8,1.3s-0.9,0.8-1.7,1.4c-0.6,0.4-1,0.7-1.1,0.9c-0.2,0.2-0.3,0.5-0.3,0.8h-4.1c0-1,0.1-1.7,0.3-2.2
		c0.2-0.4,0.5-0.9,1.1-1.4c0.8-0.7,1.4-1.3,1.6-1.7s0.3-0.8,0.3-1.3s-0.1-0.9-0.4-1.2s-0.6-0.4-1-0.4
		C103.2,33.9,102.6,34.9,102.6,36.8z M107.2,43.1v4.5h-4.7v-4.5H107.2z"/>
</g>
<g class="st4">
	<path class="st5" d="M35.6,33.1v9.6c0,1.5-0.1,2.6-0.4,3.4c-0.3,0.8-0.8,1.4-1.5,1.8c-0.8,0.5-1.8,0.7-3.1,0.7
		c-1.2,0-2.2-0.1-3.1-0.4v-3.6c0.7,0.2,1.3,0.3,1.8,0.3c0.7,0,1.1-0.2,1.4-0.5s0.4-0.9,0.4-1.7v-9.6H35.6z"/>
	<path class="st5" d="M44.7,48.6c-2.1,0-3.9-0.7-5.2-2.1c-1.4-1.4-2-3.3-2-5.7c0-2.3,0.6-4.2,1.9-5.6s3.1-2.2,5.4-2.2
		c2.1,0,3.8,0.7,5.2,2.1c1.3,1.4,2,3.3,2,5.6c0,2.4-0.7,4.4-2,5.8C48.5,47.8,46.8,48.6,44.7,48.6z M44.7,45.1c0.8,0,1.4-0.3,1.7-1
		s0.5-1.9,0.5-3.8c0-2.6-0.7-4-2.1-4c-1.5,0-2.3,1.5-2.3,4.5C42.4,43.7,43.2,45.1,44.7,45.1z"/>
	<path class="st5" d="M67.6,48.3h-5.1l-2.6-5.8l-1.6,2.2v3.5h-4.4V33.1h4.4v6.3l4.2-6.3h4.2l-3.8,5.6L67.6,48.3z"/>
	<path class="st5" d="M80.3,44.7v3.6H68.9V33.1h11.5v3.5h-6.9v2.2H79v3.4h-5.6v2.5H80.3z"/>
	<path class="st5" d="M95.7,48.3h-5.2l-2.2-5.8h-1.5v5.8h-4.7V33.1h8c1.8,0,3.1,0.4,4.1,1.2s1.5,1.9,1.5,3.3c0,0.9-0.2,1.7-0.5,2.3
		c-0.4,0.7-1.1,1.3-2.2,1.8L95.7,48.3z M86.9,39.3h2c0.6,0,1.1-0.1,1.4-0.4c0.4-0.2,0.5-0.6,0.5-1.1c0-1-0.6-1.5-1.8-1.5h-2.2
		L86.9,39.3L86.9,39.3z"/>
	<path class="st5" d="M108.9,39.2V42h-4.1v4.3H102V42h-4.1v-2.8h4.1v-4.3h2.8v4.3H108.9z"/>
	<path class="st5" d="M114.3,38.6l-4.1-0.4c0.6-3.5,2.7-5.2,6.1-5.2c1.7,0,3.1,0.5,4.1,1.4s1.5,2,1.5,3.4c0,0.6-0.1,1.1-0.3,1.6
		s-0.5,0.9-0.8,1.2s-0.8,0.7-1.5,1.2c-0.5,0.4-0.9,0.7-1,0.8c-0.1,0.2-0.2,0.4-0.3,0.8h-3.7c0-0.9,0.1-1.5,0.2-1.9
		c0.2-0.4,0.5-0.8,1-1.3c0.8-0.7,1.2-1.2,1.4-1.5c0.2-0.3,0.3-0.7,0.3-1.2s-0.1-0.8-0.4-1.1c-0.2-0.2-0.6-0.4-0.9-0.4
		C114.9,36,114.4,36.8,114.3,38.6z M118.5,44.3v4.1h-4.3v-4.1H118.5z"/>
</g>
<g>
	<path class="st1" d="M40,45.6v3.3H29.5V35H40v3.2h-6.3v2h5.1v3.1h-5.1v2.3H40z"/>
	<path class="st1" d="M48.2,38.3v10.6h-4.1V38.3h-2.9V35H51v3.3H48.2z"/>
	<path class="st1" d="M58.4,49.1c-2,0-3.6-0.6-4.8-2c-1.2-1.3-1.9-3-1.9-5.2c0-2.1,0.6-3.8,1.8-5.2s2.8-2,4.9-2
		c1.9,0,3.5,0.6,4.7,1.9s1.8,3,1.8,5.1c0,2.2-0.6,4-1.8,5.3C61.9,48.5,60.3,49.1,58.4,49.1z M58.3,46c0.7,0,1.2-0.3,1.6-0.9
		c0.3-0.6,0.5-1.8,0.5-3.5c0-2.4-0.6-3.6-2-3.6s-2.1,1.4-2.1,4.1C56.3,44.7,57,46,58.3,46z"/>
	<path class="st1" d="M71.1,35v13.9h-4.3V35H71.1z"/>
	<path class="st1" d="M83.3,45.5v3.4h-9.8V35h4.3v10.5H83.3z"/>
	<path class="st1" d="M95.2,45.6v3.3H84.7V35h10.5v3.2h-6.3v2H94v3.1h-5.1v2.3H95.2z"/>
	<path class="st1" d="M106.9,40.6v2.6h-3.8v3.9h-2.6v-3.9h-3.8v-2.6h3.8v-3.9h2.6v3.9H106.9z"/>
	<path class="st1" d="M111.9,40l-3.7-0.4c0.6-3.2,2.4-4.8,5.6-4.8c1.6,0,2.8,0.4,3.7,1.3c0.9,0.8,1.4,1.9,1.4,3.1
		c0,0.5-0.1,1-0.3,1.5c-0.2,0.4-0.4,0.8-0.7,1.1c-0.3,0.3-0.7,0.7-1.4,1.1c-0.5,0.4-0.8,0.6-0.9,0.8s-0.2,0.4-0.3,0.7h-3.4
		c0-0.8,0.1-1.4,0.2-1.8c0.1-0.4,0.4-0.8,0.9-1.2c0.7-0.6,1.1-1.1,1.3-1.4c0.2-0.3,0.3-0.7,0.3-1.1c0-0.4-0.1-0.7-0.3-1
		s-0.5-0.3-0.8-0.3C112.4,37.6,111.9,38.4,111.9,40z M115.7,45.2v3.7h-3.9v-3.7H115.7z"/>
</g>
</svg>
