<!-- Generator: Adobe Illustrator 21.0.0, SVG Export Plug-In  -->
<svg version="1.1"
	 xmlns="http://www.w3.org/2000/svg" xmlns:xlink="http://www.w3.org/1999/xlink" xmlns:a="http://ns.adobe.com/AdobeSVGViewerExtensions/3.0/"
	 x="0px" y="0px" width="158px" height="158px" viewBox="0 0 158 158" style="enable-background:new 0 0 158 158;"
	 xml:space="preserve">
<style type="text/css">
	.st0{fill:none;}
	.st1{fill:#1460B6;}
</style>
<defs>
</defs>
<rect class="st0" width="158" height="158"/>
<path class="st1" d="M59.5,38L48.4,18.7c-1-1.7-0.4-3.9,1.3-4.9c0.2-0.1,0.4-0.2,0.6-0.3l1.1-0.4c15.2-5.5,31.9-5.5,47.1,0l1.1,0.4
	c1.9,0.7,2.8,2.8,2.1,4.6c-0.1,0.2-0.2,0.4-0.3,0.6L90,38.3C80.4,43.2,69,43.1,59.5,38z M98.2,46.7c-6.9,4.2-14.9,6.5-23.1,6.5
	c-0.9,0-1.9,0-2.8-0.1c-0.4,9.7,1.6,19.4,5.8,28.2c1.6,2.7,0.7,6.2-2,7.7c-2.7,1.6-6.2,0.7-7.7-2c-0.1-0.2-0.3-0.5-0.4-0.8
	c-3.2-6.6-5.3-13.6-6.2-20.8c-2,2.3-3.8,4.7-5.4,7.2c-1.8,2.5-5.3,3.2-7.9,1.4c-2.4-1.7-3.1-4.9-1.7-7.4c3.8-5.9,8.4-11.3,13.7-15.9
	c-3-1.1-6-2.5-8.7-4.2C38,56.4,19.5,75.2,19.5,112.5c0,10.7,6.1,20.4,15.8,24.9c6.6,3,13.7,5,20.9,6c-0.2-0.9-0.3-1.7-0.3-2.6v-24
	c0-10.5,11.2-18,26.7-18c5.8-0.1,11.5,1.1,16.7,3.7V85.9c0-8.7,7.9-15.5,19.5-17.4C113.5,60,106.5,52.5,98.2,46.7z M126,78
	c-9.2,0-16.6,3.6-16.6,8v4c0,4.3,7.4,8,16.6,8s16.6-3.6,16.6-8v-4C142.7,81.5,135.2,78,126,78z M66,135.1v7.9c0,4.3,7.4,8,16.6,8
	s16.6-3.6,16.6-8v-7.9c-5.2,2.5-10.9,3.7-16.6,3.6C76.9,138.9,71.2,137.6,66,135.1z M109.4,104.3v7.9c0,4.3,7.4,8,16.6,8
	s16.6-3.6,16.6-8v-7.9c-5.2,2.5-10.9,3.8-16.6,3.6C120.3,108.1,114.6,106.8,109.4,104.3z M82.7,108.8c-9.2,0-16.6,3.6-16.6,8v4
	c0,4.3,7.4,8,16.6,8s16.6-3.6,16.6-8v-4C99.3,112.4,91.8,108.8,82.7,108.8z M109.4,126.7v7.9c0,4.3,7.4,8,16.6,8s16.6-3.6,16.6-8
	v-7.9c-5.2,2.5-10.9,3.7-16.6,3.6C120.3,130.4,114.6,129.2,109.4,126.7L109.4,126.7z"/>
</svg>
